
,
    {
        "dip": "6730348",
        "id_programa": "DISGRA",
        "id_estudiante": 1682796,
        "primer_apellido": "YUJRA",
        "segundo_apellido": "CALLISAYA",
        "nombres": "RUTH",
        "telefono": [
            "2418006",
            "79594312"
        ],
        "correo": "RUTICA17-7@HOTMAIL.COM",
        "direccion": "CALLEJON 4 # 55",
        "fec_nacimiento": "1986-09-07",
        "estado_estudiante": "Activo",
        "sede": "CIUDAD LA PAZ",
        "id_sede": 1,
        "matricula": "52996",
        "id_sexo": "F",
        "estado_civil": "SOLTERO",
        "provincia": "PEDRO DOMINGO MURILLO",
        "tieneSeguroActual": false,
        "gestionSeguro": 0,
        "tieneCertificadoNoDeudas": false,
        "gestionCertificadoNoDeudas": 0
    },
    {
        "dip": "4282186",
        "id_programa": "CONCIV",
        "id_estudiante": 67497,
        "primer_apellido": "YUJRA",
        "segundo_apellido": "CALLISAYA",
        "nombres": "SANTIAGO",
        "telefono": [
            "77770048"
        ],
        "correo": "@",
        "direccion": "Calle Vargas # 200",
        "fec_nacimiento": "1977-07-25",
        "estado_estudiante": "Activo",
        "sede": "CIUDAD LA PAZ",
        "id_sede": 1,
        "matricula": "62573",
        "id_sexo": "M",
        "estado_civil": "SOLTERO",
        "provincia": "OMASUYOS",
        "tieneSeguroActual": false,
        "gestionSeguro": 0,
        "tieneCertificadoNoDeudas": false,
        "gestionCertificadoNoDeudas": 0
    },
    {
        "dip": "2603631",
        "id_programa": "CIEEDU",
        "id_estudiante": 62058,
        "primer_apellido": "YUJRA",
        "segundo_apellido": "CALLISAYA",
        "nombres": "ADELA MIRIAM",
        "telefono": [
            "0 "
        ],
        "correo": "@",
        "direccion": "",
        "fec_nacimiento": "1964-01-01",
        "estado_estudiante": "Requiere reinscripción remita a GESTIONES",
        "sede": "CIUDAD LA PAZ",
        "id_sede": 1,
        "matricula": "",
        "id_sexo": "F",
        "estado_civil": "SOLTERO",
        "provincia": "PEDRO DOMINGO MURILLO",
        "tieneSeguroActual": false,
        "gestionSeguro": 0,
        "tieneCertificadoNoDeudas": false,
        "gestionCertificadoNoDeudas": 0
    },
    {
        "dip": "6844825",
        "id_programa": "QUIIND",
        "id_estudiante": 1625486,
        "primer_apellido": "YUJRA",
        "segundo_apellido": "CALLISAYA",
        "nombres": "LILIAN GABRIELA",
        "telefono": [
            "2830695",
            "76281785"
        ],
        "correo": "@",
        "direccion": "Z. Luis Espinal Camps Calle Vinto # 1645",
        "fec_nacimiento": "1988-08-30",
        "estado_estudiante": "Activo",
        "sede": "CIUDAD LA PAZ",
        "id_sede": 1,
        "matricula": "",
        "id_sexo": "F",
        "estado_civil": "SOLTERO",
        "provincia": "PEDRO DOMINGO MURILLO",
        "tieneSeguroActual": false,
        "gestionSeguro": 0,
        "tieneCertificadoNoDeudas": false,
        "gestionCertificadoNoDeudas": 0
    },
    {
        "dip": "3321566",
        "id_programa": "TRA",
        "id_estudiante": 5526,
        "primer_apellido": "YUJRA",
        "segundo_apellido": "CALLISAYA",
        "nombres": "ZINAIDA",
        "telefono": [
            "0 "
        ],
        "correo": "@",
        "direccion": "",
        "fec_nacimiento": "1968-11-07",
        "estado_estudiante": "Requiere reinscripción remita a GESTIONES",
        "sede": "CIUDAD LA PAZ",
        "id_sede": 1,
        "matricula": "",
        "id_sexo": "F",
        "estado_civil": "SOLTERO",
        "provincia": "PEDRO DOMINGO MURILLO",
        "tieneSeguroActual": false,
        "gestionSeguro": 0,
        "tieneCertificadoNoDeudas": false,
        "gestionCertificadoNoDeudas": 0
    },
    {
        "dip": "6034907",
        "id_programa": "ELTTEL",
        "id_estudiante": 1610385,
        "primer_apellido": "YUJRA",
        "segundo_apellido": "CALLISAYA",
        "nombres": "REMBERTO",
        "telefono": [
          ],
        "correo": "@",
        "direccion": "Villa esperanza, calle Arturo Valle # 8-A",
        "fec_nacimiento": "1982-07-17",
        "estado_estudiante": "Requiere reinscripción remita a GESTIONES",
        "sede": "CIUDAD LA PAZ",
        "id_sede": 1,
        "matricula": "",
        "id_sexo": "M",
        "estado_civil": "SOLTERO",
        "provincia": "PEDRO DOMINGO MURILLO",
        "tieneSeguroActual": false,
        "gestionSeguro": 0,
        "tieneCertificadoNoDeudas": false,
        "gestionCertificadoNoDeudas": 0
    },
    {
        "dip": "3321566",
        "id_programa": "DER",
        "id_estudiante": 49681,
        "primer_apellido": "YUJRA",
        "segundo_apellido": "CALLISAYA",
        "nombres": "ZINAIDA",
        "telefono": [
            "0 "
        ],
        "correo": "@",
        "direccion": "",
        "fec_nacimiento": "1968-11-07",
        "estado_estudiante": "Requiere reinscripción remita a GESTIONES",
        "sede": "CIUDAD LA PAZ",
        "id_sede": 1,
        "matricula": "",
        "id_sexo": "F",
        "estado_civil": "SOLTERO",
        "provincia": "PEDRO DOMINGO MURILLO",
        "tieneSeguroActual": false,
        "gestionSeguro": 0,
        "tieneCertificadoNoDeudas": false,
        "gestionCertificadoNoDeudas": 0
    },
    {
        "dip": "6948930",
        "id_programa": "MECAUT",
        "id_estudiante": 1616525,
        "primer_apellido": "YUJRA",
        "segundo_apellido": "CALLISAYA",
        "nombres": "MARCO ANTONIO",
        "telefono": [
            "69873673"
        ],
        "correo": "nmaycoo29@gmail.com",
        "direccion": "Z/VILLA ESPERANZA C/ARTURO VALLE #8-A",
        "fec_nacimiento": "1987-10-29",
        "estado_estudiante": "Devolución",
        "sede": "CIUDAD LA PAZ",
        "id_sede": 1,
        "matricula": "",
        "id_sexo": "M",
        "estado_civil": "SOLTERO",
        "provincia": "PEDRO DOMINGO MURILLO",
        "tieneSeguroActual": false,
        "gestionSeguro": 0,
        "tieneCertificadoNoDeudas": false,
        "gestionCertificadoNoDeudas": 0
    },
    {
        "dip": "4864451",
        "id_programa": "PSI",
        "id_estudiante": 123109,
        "primer_apellido": "YUJRA",
        "segundo_apellido": "CALLISAYA",
        "nombres": "CINTYA",
        "telefono": [
            "2384166 "
        ],
        "correo": "@",
        "direccion": "",
        "fec_nacimiento": "1980-08-24",
        "estado_estudiante": "Requiere reinscripción remita a GESTIONES",
        "sede": "CIUDAD LA PAZ",
        "id_sede": 1,
        "matricula": "",
        "id_sexo": "F",
        "estado_civil": "SOLTERO",
        "provincia": "PEDRO DOMINGO MURILLO",
        "tieneSeguroActual": false,
        "gestionSeguro": 0,
        "tieneCertificadoNoDeudas": false,
        "gestionCertificadoNoDeudas": 0
    },
    {
        "dip": "4805503",
        "id_programa": "ECO",
        "id_estudiante": 141615,
        "primer_apellido": "YUJRA",
        "segundo_apellido": "CALLISAYA",
        "nombres": "CESAR DIEGO",
        "telefono": [
            "0"
        ],
        "correo": "cesardiegocd@hotmail.com",
        "direccion": "ALTO CIUDADELA CALLE C NR. 36",
        "fec_nacimiento": "1979-12-23",
        "estado_estudiante": "Activo",
        "sede": "CIUDAD LA PAZ",
        "id_sede": 1,
        "matricula": "",
        "id_sexo": "M",
        "estado_civil": "SOLTERO",
        "provincia": "PEDRO DOMINGO MURILLO",
        "tieneSeguroActual": false,
        "gestionSeguro": 0,
        "tieneCertificadoNoDeudas": false,
        "gestionCertificadoNoDeudas": 0
    },
    {
        "dip": "6948930",
        "id_programa": "ARU",
        "id_estudiante": 1665807,
        "primer_apellido": "YUJRA",
        "segundo_apellido": "CALLISAYA",
        "nombres": "MARCO ANTONIO",
        "telefono": [
            "69873673"
        ],
        "correo": "nmaycoo29@gmail.com",
        "direccion": "Z/VILLA ESPERANZA C/ARTURO VALLE #8-A",
        "fec_nacimiento": "1987-10-29",
        "estado_estudiante": "Profesional",
        "sede": "CIUDAD LA PAZ",
        "id_sede": 1,
        "matricula": "",
        "id_sexo": "M",
        "estado_civil": "SOLTERO",
        "provincia": "PEDRO DOMINGO MURILLO",
        "tieneSeguroActual": false,
        "gestionSeguro": 0,
        "tieneCertificadoNoDeudas": false,
        "gestionCertificadoNoDeudas": 0
    },
    {
        "dip": "6730348",
        "id_programa": "ARTPLA",
        "id_estudiante": 1643693,
        "primer_apellido": "YUJRA",
        "segundo_apellido": "CALLISAYA",
        "nombres": "RUTH",
        "telefono": [
            "2418006",
            "79594312"
        ],
        "correo": "RUTICA17-7@HOTMAIL.COM",
        "direccion": "CALLEJON 4 # 55",
        "fec_nacimiento": "1986-09-07",
        "estado_estudiante": "Inactivo",
        "sede": "CIUDAD LA PAZ",
        "id_sede": 1,
        "matricula": "",
        "id_sexo": "F",
        "estado_civil": "SOLTERO",
        "provincia": "PEDRO DOMINGO MURILLO",
        "tieneSeguroActual": false,
        "gestionSeguro": 0,
        "tieneCertificadoNoDeudas": false,
        "gestionCertificadoNoDeudas": 0
    },
    {
        "dip": "4795866",
        "id_programa": "ODO",
        "id_estudiante": 90359,
        "primer_apellido": "YUJRA",
        "segundo_apellido": "CALLISAYA",
        "nombres": "RAMIRO ALFREDO",
        "telefono": [
            "0"
        ],
        "correo": "@",
        "direccion": "",
        "fec_nacimiento": "1976-04-10",
        "estado_estudiante": "Profesional",
        "sede": "CIUDAD LA PAZ",
        "id_sede": 1,
        "matricula": "",
        "id_sexo": "M",
        "estado_civil": "SOLTERO",
        "provincia": "PEDRO DOMINGO MURILLO",
        "tieneSeguroActual": false,
        "gestionSeguro": 0,
        "tieneCertificadoNoDeudas": false,
        "gestionCertificadoNoDeudas": 0
    },
    {
        "dip": "6948930",
        "id_programa": "ARTPLA",
        "id_estudiante": 1640641,
        "primer_apellido": "YUJRA",
        "segundo_apellido": "CALLISAYA",
        "nombres": "MARCO ANTONIO",
        "telefono": [
            "69873673"
        ],
        "correo": "nmaycoo29@gmail.com",
        "direccion": "Z/VILLA ESPERANZA C/ARTURO VALLE #8-A",
        "fec_nacimiento": "1987-10-29",
        "estado_estudiante": "Devolución",
        "sede": "CIUDAD LA PAZ",
        "id_sede": 1,
        "matricula": "",
        "id_sexo": "M",
        "estado_civil": "SOLTERO",
        "provincia": "PEDRO DOMINGO MURILLO",
        "tieneSeguroActual": false,
        "gestionSeguro": 0,
        "tieneCertificadoNoDeudas": false,
        "gestionCertificadoNoDeudas": 0
    }
]